{
    "blacklisted-desktop-dirs": "/usr/share/locale:/usr/share/app-install:/usr/share/kservices5:/usr/share/fk5:/usr/share/kservicetypes5:/usr/share/applications/screensavers:/usr/share/kde4:/usr/share/mimelnk",
    "clear-previous-query": true,
    "hotkey-show-app": "Super_R",
    "show-indicator-icon": true,
    "show-recent-apps": false,
    "theme-name": "ubuntu"
}