{
    "c74ec5db-d46c-41d5-a320-58f74034d3eb": {
        "id": "c74ec5db-d46c-41d5-a320-58f74034d3eb",
        "name": "DuckduckGo",
        "keyword": "ddg",
        "cmd": "https://duckduckgo.com/?q=%s",
        "icon": "",
        "is_default_search": true,
        "run_without_argument": false,
        "added": 1577395581.821529
    }
}